{
    "status":"emailpasswordconfirmmaybesent",
    "notice":"<p>Als je de juiste gebruikersnaam of e-mailadres hebt ingegeven, dan is er een e-mail naar jou verstuurd.</p><p>Daarin staan eenvoudige instructies om te bevestigen en het wijzigen van je wachtwoord te voltooien.</p><p>Mocht je moeilijkheden blijven ondervinden, dan kun je het beste contact opnemen met de beheerder van de site.</p>",
    "warnings":[]
}
