[
    {
        "id": 6,
        "username": "gerlach.brittany77",
        "firstname": "Casimer",
        "lastname": "Wolff",
        "fullname": "Casimer Wolff",
        "email": "felicity50@example.com",
        "department": "",
        "idnumber": "7",
        "firstaccess": 0,
        "lastaccess": 0,
        "auth": "manual",
        "suspended": false,
        "confirmed": true,
        "lang": "en",
        "theme": "",
        "timezone": "99",
        "mailformat": 1,
        "profileimageurlsmall": "https://moodle.nl/theme/image.php/boost/core/1622013023/u/f2",
        "profileimageurl": "https://moodle.nl/theme/image.php/boost/core/1622013023/u/f1"
    }
]
